
{
    "title":"Title1",
    "slides":[
        {
            "image_file_name":"ArchesUtah.jpg",
            "image_path":"E:\\Stony Brook\\CSE219\\SlideshowMaker\\images\\slide_show_images\\",
            "caption":"ENTER CAPTION"
        },
        {
            "image_file_name":"BadlandsSouthDakota.jpg",
            "image_path":"E:\\Stony Brook\\CSE219\\SlideshowMaker\\images\\slide_show_images\\",
            "caption":"ENTER CAPTION"
        },
        {
            "image_file_name":"DefaultStartSlide.png",
            "image_path":"images/slide_show_images/",
            "caption":"ENTER CAPTION"
        }
    ]
}